{
  "version": "0.1",
  "pkgs": [
    "ea-apache24",
    "ea-apache24-config",
    "ea-apache24-config-runtime",
    "ea-apache24-devel",
    "ea-apache24-mod_bwlimited",
    "ea-apache24-mod_cgid",
    "ea-apache24-mod_deflate",
    "ea-apache24-mod_env",
    "ea-apache24-mod_expires",
    "ea-apache24-mod_headers",
    "ea-apache24-mod_hostinglimits",
    "ea-apache24-mod_lsapi",
    "ea-apache24-mod_mpm_event",
    "ea-apache24-mod_proxy",
    "ea-apache24-mod_proxy_fcgi",
    "ea-apache24-mod_proxy_http",
    "ea-apache24-mod_proxy_wstunnel",
    "ea-apache24-mod_remoteip",
    "ea-apache24-mod_security2",
    "ea-apache24-mod_ssl",
    "ea-apache24-mod_suexec",
    "ea-apache24-mod_suphp",
    "ea-apache24-mod_unique_id",
    "ea-apache24-mod_version",
    "ea-apache24-tools",
    "ea-apr",
    "ea-apr-devel",
    "ea-apr-util",
    "ea-apr-util-devel",
    "ea-brotli",
    "ea-cpanel-tools",
    "ea-documentroot",
    "ea-libargon2",
    "ea-libcurl",
    "ea-libmcrypt",
    "ea-libnghttp2",
    "ea-libnghttp2-devel",
    "ea-libtidy",
    "ea-libxml2",
    "ea-modsec-sdbm-util",
    "ea-nghttp2",
    "ea-oniguruma",
    "ea-oniguruma-devel",
    "ea-openssl",
    "ea-openssl-devel",
    "ea-openssl11",
    "ea-openssl11-devel",
    "ea-php-cli",
    "ea-php-cli-lsphp",
    "ea-php51",
    "ea-php51-build",
    "ea-php51-libc-client",
    "ea-php51-pear",
    "ea-php51-php-bcmath",
    "ea-php51-php-bz2",
    "ea-php51-php-calendar",
    "ea-php51-php-cli",
    "ea-php51-php-common",
    "ea-php51-php-curl",
    "ea-php51-php-dba",
    "ea-php51-php-devel",
    "ea-php51-php-enchant",
    "ea-php51-php-exif",
    "ea-php51-php-fileinfo",
    "ea-php51-php-fpm",
    "ea-php51-php-ftp",
    "ea-php51-php-gd",
    "ea-php51-php-gettext",
    "ea-php51-php-gmp",
    "ea-php51-php-iconv",
    "ea-php51-php-imap",
    "ea-php51-php-ioncube",
    "ea-php51-php-ldap",
    "ea-php51-php-litespeed",
    "ea-php51-php-mariadb10",
    "ea-php51-php-mariadb101",
    "ea-php51-php-mariadb102",
    "ea-php51-php-mbstring",
    "ea-php51-php-mcrypt",
    "ea-php51-php-mysql5.5",
    "ea-php51-php-mysql5.6",
    "ea-php51-php-mysql5.7",
    "ea-php51-php-odbc",
    "ea-php51-php-pdo",
    "ea-php51-php-percona5.6",
    "ea-php51-php-pgsql",
    "ea-php51-php-posix",
    "ea-php51-php-process",
    "ea-php51-php-pspell",
    "ea-php51-php-snmp",
    "ea-php51-php-soap",
    "ea-php51-php-sockets",
    "ea-php51-php-tidy",
    "ea-php51-php-xml",
    "ea-php51-php-xmlrpc",
    "ea-php51-runtime",
    "ea-php52",
    "ea-php52-build",
    "ea-php52-libc-client",
    "ea-php52-pear",
    "ea-php52-php-bcmath",
    "ea-php52-php-bz2",
    "ea-php52-php-cli",
    "ea-php52-php-common",
    "ea-php52-php-curl",
    "ea-php52-php-dba",
    "ea-php52-php-devel",
    "ea-php52-php-enchant",
    "ea-php52-php-exif",
    "ea-php52-php-fileinfo",
    "ea-php52-php-ftp",
    "ea-php52-php-gd",
    "ea-php52-php-gettext",
    "ea-php52-php-gmp",
    "ea-php52-php-iconv",
    "ea-php52-php-imap",
    "ea-php52-php-intl",
    "ea-php52-php-ioncube",
    "ea-php52-php-ldap",
    "ea-php52-php-litespeed",
    "ea-php52-php-mariadb10",
    "ea-php52-php-mariadb101",
    "ea-php52-php-mariadb102",
    "ea-php52-php-mbstring",
    "ea-php52-php-mcrypt",
    "ea-php52-php-mysql5.5",
    "ea-php52-php-mysql5.6",
    "ea-php52-php-mysql5.7",
    "ea-php52-php-odbc",
    "ea-php52-php-pdo",
    "ea-php52-php-percona5.6",
    "ea-php52-php-pgsql",
    "ea-php52-php-posix",
    "ea-php52-php-process",
    "ea-php52-php-pspell",
    "ea-php52-php-snmp",
    "ea-php52-php-soap",
    "ea-php52-php-sockets",
    "ea-php52-php-tidy",
    "ea-php52-php-xml",
    "ea-php52-php-xmlrpc",
    "ea-php52-php-zip",
    "ea-php52-runtime",
    "ea-php53",
    "ea-php53-build",
    "ea-php53-libc-client",
    "ea-php53-pear",
    "ea-php53-php-bcmath",
    "ea-php53-php-bz2",
    "ea-php53-php-cli",
    "ea-php53-php-common",
    "ea-php53-php-curl",
    "ea-php53-php-dba",
    "ea-php53-php-devel",
    "ea-php53-php-enchant",
    "ea-php53-php-exif",
    "ea-php53-php-fileinfo",
    "ea-php53-php-fpm",
    "ea-php53-php-ftp",
    "ea-php53-php-gd",
    "ea-php53-php-gettext",
    "ea-php53-php-iconv",
    "ea-php53-php-imap",
    "ea-php53-php-intl",
    "ea-php53-php-ioncube",
    "ea-php53-php-ldap",
    "ea-php53-php-litespeed",
    "ea-php53-php-mbstring",
    "ea-php53-php-mcrypt",
    "ea-php53-php-mysqlnd",
    "ea-php53-php-odbc",
    "ea-php53-php-pdo",
    "ea-php53-php-pgsql",
    "ea-php53-php-posix",
    "ea-php53-php-process",
    "ea-php53-php-pspell",
    "ea-php53-php-snmp",
    "ea-php53-php-soap",
    "ea-php53-php-sockets",
    "ea-php53-php-sourceguardian",
    "ea-php53-php-xml",
    "ea-php53-php-xmlrpc",
    "ea-php53-php-zip",
    "ea-php53-runtime",
    "ea-php54",
    "ea-php54-build",
    "ea-php54-libc-client",
    "ea-php54-pear",
    "ea-php54-php-bcmath",
    "ea-php54-php-bz2",
    "ea-php54-php-cli",
    "ea-php54-php-common",
    "ea-php54-php-curl",
    "ea-php54-php-dba",
    "ea-php54-php-devel",
    "ea-php54-php-enchant",
    "ea-php54-php-exif",
    "ea-php54-php-fileinfo",
    "ea-php54-php-fpm",
    "ea-php54-php-ftp",
    "ea-php54-php-gd",
    "ea-php54-php-gettext",
    "ea-php54-php-iconv",
    "ea-php54-php-imap",
    "ea-php54-php-intl",
    "ea-php54-php-ioncube10",
    "ea-php54-php-ldap",
    "ea-php54-php-litespeed",
    "ea-php54-php-mbstring",
    "ea-php54-php-mcrypt",
    "ea-php54-php-mysqlnd",
    "ea-php54-php-odbc",
    "ea-php54-php-pdo",
    "ea-php54-php-pgsql",
    "ea-php54-php-posix",
    "ea-php54-php-process",
    "ea-php54-php-pspell",
    "ea-php54-php-snmp",
    "ea-php54-php-soap",
    "ea-php54-php-sockets",
    "ea-php54-php-sourceguardian",
    "ea-php54-php-xml",
    "ea-php54-php-xmlrpc",
    "ea-php54-php-zip",
    "ea-php54-runtime",
    "ea-php55",
    "ea-php55-build",
    "ea-php55-libc-client",
    "ea-php55-pear",
    "ea-php55-php-bcmath",
    "ea-php55-php-bz2",
    "ea-php55-php-cli",
    "ea-php55-php-common",
    "ea-php55-php-curl",
    "ea-php55-php-dba",
    "ea-php55-php-devel",
    "ea-php55-php-enchant",
    "ea-php55-php-exif",
    "ea-php55-php-fileinfo",
    "ea-php55-php-fpm",
    "ea-php55-php-ftp",
    "ea-php55-php-gd",
    "ea-php55-php-gettext",
    "ea-php55-php-iconv",
    "ea-php55-php-imap",
    "ea-php55-php-intl",
    "ea-php55-php-ioncube10",
    "ea-php55-php-ldap",
    "ea-php55-php-litespeed",
    "ea-php55-php-mbstring",
    "ea-php55-php-mcrypt",
    "ea-php55-php-mysqlnd",
    "ea-php55-php-odbc",
    "ea-php55-php-pdo",
    "ea-php55-php-pgsql",
    "ea-php55-php-posix",
    "ea-php55-php-process",
    "ea-php55-php-pspell",
    "ea-php55-php-snmp",
    "ea-php55-php-soap",
    "ea-php55-php-sockets",
    "ea-php55-php-sourceguardian",
    "ea-php55-php-xml",
    "ea-php55-php-xmlrpc",
    "ea-php55-php-zip",
    "ea-php55-runtime",
    "ea-php56",
    "ea-php56-build",
    "ea-php56-libc-client",
    "ea-php56-pear",
    "ea-php56-php-bcmath",
    "ea-php56-php-bz2",
    "ea-php56-php-cli",
    "ea-php56-php-common",
    "ea-php56-php-curl",
    "ea-php56-php-dba",
    "ea-php56-php-devel",
    "ea-php56-php-enchant",
    "ea-php56-php-exif",
    "ea-php56-php-fileinfo",
    "ea-php56-php-fpm",
    "ea-php56-php-ftp",
    "ea-php56-php-gd",
    "ea-php56-php-gettext",
    "ea-php56-php-iconv",
    "ea-php56-php-imap",
    "ea-php56-php-intl",
    "ea-php56-php-ioncube10",
    "ea-php56-php-ldap",
    "ea-php56-php-litespeed",
    "ea-php56-php-mbstring",
    "ea-php56-php-mcrypt",
    "ea-php56-php-mysqlnd",
    "ea-php56-php-odbc",
    "ea-php56-php-pdo",
    "ea-php56-php-pgsql",
    "ea-php56-php-posix",
    "ea-php56-php-process",
    "ea-php56-php-pspell",
    "ea-php56-php-snmp",
    "ea-php56-php-soap",
    "ea-php56-php-sockets",
    "ea-php56-php-sourceguardian",
    "ea-php56-php-xml",
    "ea-php56-php-xmlrpc",
    "ea-php56-php-zip",
    "ea-php56-runtime",
    "ea-php70",
    "ea-php70-build",
    "ea-php70-libc-client",
    "ea-php70-pear",
    "ea-php70-php-bcmath",
    "ea-php70-php-bz2",
    "ea-php70-php-cli",
    "ea-php70-php-common",
    "ea-php70-php-curl",
    "ea-php70-php-dba",
    "ea-php70-php-devel",
    "ea-php70-php-enchant",
    "ea-php70-php-exif",
    "ea-php70-php-fileinfo",
    "ea-php70-php-fpm",
    "ea-php70-php-ftp",
    "ea-php70-php-gd",
    "ea-php70-php-gettext",
    "ea-php70-php-iconv",
    "ea-php70-php-imap",
    "ea-php70-php-intl",
    "ea-php70-php-ioncube10",
    "ea-php70-php-ldap",
    "ea-php70-php-litespeed",
    "ea-php70-php-mbstring",
    "ea-php70-php-mcrypt",
    "ea-php70-php-mysqlnd",
    "ea-php70-php-odbc",
    "ea-php70-php-opcache",
    "ea-php70-php-pdo",
    "ea-php70-php-pgsql",
    "ea-php70-php-posix",
    "ea-php70-php-process",
    "ea-php70-php-pspell",
    "ea-php70-php-snmp",
    "ea-php70-php-soap",
    "ea-php70-php-sockets",
    "ea-php70-php-xml",
    "ea-php70-php-xmlrpc",
    "ea-php70-php-zip",
    "ea-php70-runtime",
    "ea-php71",
    "ea-php71-build",
    "ea-php71-libc-client",
    "ea-php71-pear",
    "ea-php71-php-bcmath",
    "ea-php71-php-bz2",
    "ea-php71-php-cli",
    "ea-php71-php-common",
    "ea-php71-php-curl",
    "ea-php71-php-dba",
    "ea-php71-php-devel",
    "ea-php71-php-enchant",
    "ea-php71-php-exif",
    "ea-php71-php-fileinfo",
    "ea-php71-php-fpm",
    "ea-php71-php-ftp",
    "ea-php71-php-gd",
    "ea-php71-php-gettext",
    "ea-php71-php-iconv",
    "ea-php71-php-imap",
    "ea-php71-php-intl",
    "ea-php71-php-ioncube10",
    "ea-php71-php-ldap",
    "ea-php71-php-litespeed",
    "ea-php71-php-mbstring",
    "ea-php71-php-mcrypt",
    "ea-php71-php-mysqlnd",
    "ea-php71-php-odbc",
    "ea-php71-php-pdo",
    "ea-php71-php-pgsql",
    "ea-php71-php-posix",
    "ea-php71-php-process",
    "ea-php71-php-pspell",
    "ea-php71-php-snmp",
    "ea-php71-php-soap",
    "ea-php71-php-sockets",
    "ea-php71-php-xml",
    "ea-php71-php-xmlrpc",
    "ea-php71-php-zip",
    "ea-php71-runtime",
    "ea-php72",
    "ea-php72-build",
    "ea-php72-libc-client",
    "ea-php72-pear",
    "ea-php72-php-bcmath",
    "ea-php72-php-bz2",
    "ea-php72-php-cli",
    "ea-php72-php-common",
    "ea-php72-php-curl",
    "ea-php72-php-dba",
    "ea-php72-php-devel",
    "ea-php72-php-enchant",
    "ea-php72-php-exif",
    "ea-php72-php-fileinfo",
    "ea-php72-php-fpm",
    "ea-php72-php-ftp",
    "ea-php72-php-gd",
    "ea-php72-php-gettext",
    "ea-php72-php-iconv",
    "ea-php72-php-imap",
    "ea-php72-php-intl",
    "ea-php72-php-ioncube10",
    "ea-php72-php-ldap",
    "ea-php72-php-litespeed",
    "ea-php72-php-mbstring",
    "ea-php72-php-memcached",
    "ea-php72-php-mysqlnd",
    "ea-php72-php-odbc",
    "ea-php72-php-opcache",
    "ea-php72-php-pdo",
    "ea-php72-php-pgsql",
    "ea-php72-php-posix",
    "ea-php72-php-process",
    "ea-php72-php-pspell",
    "ea-php72-php-snmp",
    "ea-php72-php-soap",
    "ea-php72-php-sockets",
    "ea-php72-php-tidy",
    "ea-php72-php-xml",
    "ea-php72-php-xmlrpc",
    "ea-php72-php-zip",
    "ea-php72-runtime",
    "ea-php73",
    "ea-php73-build",
    "ea-php73-libc-client",
    "ea-php73-pear",
    "ea-php73-php-bcmath",
    "ea-php73-php-bz2",
    "ea-php73-php-cli",
    "ea-php73-php-common",
    "ea-php73-php-curl",
    "ea-php73-php-dba",
    "ea-php73-php-devel",
    "ea-php73-php-enchant",
    "ea-php73-php-exif",
    "ea-php73-php-fileinfo",
    "ea-php73-php-fpm",
    "ea-php73-php-ftp",
    "ea-php73-php-gd",
    "ea-php73-php-gettext",
    "ea-php73-php-iconv",
    "ea-php73-php-imap",
    "ea-php73-php-intl",
    "ea-php73-php-ioncube10",
    "ea-php73-php-ldap",
    "ea-php73-php-litespeed",
    "ea-php73-php-mbstring",
    "ea-php73-php-memcached",
    "ea-php73-php-mysqlnd",
    "ea-php73-php-odbc",
    "ea-php73-php-opcache",
    "ea-php73-php-pdo",
    "ea-php73-php-pgsql",
    "ea-php73-php-posix",
    "ea-php73-php-process",
    "ea-php73-php-pspell",
    "ea-php73-php-snmp",
    "ea-php73-php-soap",
    "ea-php73-php-sockets",
    "ea-php73-php-tidy",
    "ea-php73-php-xml",
    "ea-php73-php-xmlrpc",
    "ea-php73-php-zip",
    "ea-php73-runtime",
    "ea-php74",
    "ea-php74-build",
    "ea-php74-libc-client",
    "ea-php74-pear",
    "ea-php74-php-bcmath",
    "ea-php74-php-bz2",
    "ea-php74-php-cli",
    "ea-php74-php-common",
    "ea-php74-php-curl",
    "ea-php74-php-dba",
    "ea-php74-php-devel",
    "ea-php74-php-enchant",
    "ea-php74-php-exif",
    "ea-php74-php-fileinfo",
    "ea-php74-php-ftp",
    "ea-php74-php-gd",
    "ea-php74-php-gettext",
    "ea-php74-php-iconv",
    "ea-php74-php-imap",
    "ea-php74-php-ioncube10",
    "ea-php74-php-ldap",
    "ea-php74-php-litespeed",
    "ea-php74-php-mbstring",
    "ea-php74-php-memcached",
    "ea-php74-php-mysqlnd",
    "ea-php74-php-odbc",
    "ea-php74-php-opcache",
    "ea-php74-php-pdo",
    "ea-php74-php-pgsql",
    "ea-php74-php-posix",
    "ea-php74-php-process",
    "ea-php74-php-pspell",
    "ea-php74-php-redis",
    "ea-php74-php-snmp",
    "ea-php74-php-soap",
    "ea-php74-php-sockets",
    "ea-php74-php-xml",
    "ea-php74-php-xmlrpc",
    "ea-php74-runtime",
    "ea-php80",
    "ea-php80-build",
    "ea-php80-libc-client",
    "ea-php80-pear",
    "ea-php80-php-bcmath",
    "ea-php80-php-bz2",
    "ea-php80-php-cli",
    "ea-php80-php-common",
    "ea-php80-php-curl",
    "ea-php80-php-dba",
    "ea-php80-php-devel",
    "ea-php80-php-enchant",
    "ea-php80-php-exif",
    "ea-php80-php-fileinfo",
    "ea-php80-php-ftp",
    "ea-php80-php-gd",
    "ea-php80-php-gettext",
    "ea-php80-php-iconv",
    "ea-php80-php-imap",
    "ea-php80-php-ldap",
    "ea-php80-php-litespeed",
    "ea-php80-php-mbstring",
    "ea-php80-php-mysqlnd",
    "ea-php80-php-odbc",
    "ea-php80-php-pdo",
    "ea-php80-php-pgsql",
    "ea-php80-php-posix",
    "ea-php80-php-process",
    "ea-php80-php-pspell",
    "ea-php80-php-redis",
    "ea-php80-php-snmp",
    "ea-php80-php-soap",
    "ea-php80-php-sockets",
    "ea-php80-php-xml",
    "ea-php80-runtime",
    "ea-php81",
    "ea-php81-build",
    "ea-php81-libc-client",
    "ea-php81-pear",
    "ea-php81-php-bcmath",
    "ea-php81-php-bz2",
    "ea-php81-php-cli",
    "ea-php81-php-common",
    "ea-php81-php-curl",
    "ea-php81-php-dba",
    "ea-php81-php-devel",
    "ea-php81-php-enchant",
    "ea-php81-php-exif",
    "ea-php81-php-fileinfo",
    "ea-php81-php-ftp",
    "ea-php81-php-gd",
    "ea-php81-php-gettext",
    "ea-php81-php-iconv",
    "ea-php81-php-imap",
    "ea-php81-php-ioncube12",
    "ea-php81-php-ldap",
    "ea-php81-php-litespeed",
    "ea-php81-php-mbstring",
    "ea-php81-php-mysqlnd",
    "ea-php81-php-odbc",
    "ea-php81-php-pdo",
    "ea-php81-php-pgsql",
    "ea-php81-php-posix",
    "ea-php81-php-process",
    "ea-php81-php-pspell",
    "ea-php81-php-redis",
    "ea-php81-php-snmp",
    "ea-php81-php-soap",
    "ea-php81-php-sockets",
    "ea-php81-php-xml",
    "ea-php81-runtime",
    "ea-php82",
    "ea-php82-build",
    "ea-php82-libc-client",
    "ea-php82-pear",
    "ea-php82-php-bcmath",
    "ea-php82-php-bz2",
    "ea-php82-php-cli",
    "ea-php82-php-common",
    "ea-php82-php-curl",
    "ea-php82-php-dba",
    "ea-php82-php-devel",
    "ea-php82-php-enchant",
    "ea-php82-php-exif",
    "ea-php82-php-fileinfo",
    "ea-php82-php-ftp",
    "ea-php82-php-gd",
    "ea-php82-php-gettext",
    "ea-php82-php-iconv",
    "ea-php82-php-imap",
    "ea-php82-php-ldap",
    "ea-php82-php-litespeed",
    "ea-php82-php-mbstring",
    "ea-php82-php-mysqlnd",
    "ea-php82-php-odbc",
    "ea-php82-php-pdo",
    "ea-php82-php-pgsql",
    "ea-php82-php-posix",
    "ea-php82-php-process",
    "ea-php82-php-pspell",
    "ea-php82-php-redis",
    "ea-php82-php-snmp",
    "ea-php82-php-soap",
    "ea-php82-php-sockets",
    "ea-php82-php-xml",
    "ea-php82-runtime",
    "ea-profiles-cpanel",
    "ea-ruby27-libuv",
    "ea-ruby27-mod_passenger",
    "ea-ruby27-ruby",
    "ea-ruby27-ruby-devel",
    "ea-ruby27-ruby-irb",
    "ea-ruby27-ruby-libs",
    "ea-ruby27-ruby-wrapper",
    "ea-ruby27-rubygem-bigdecimal",
    "ea-ruby27-rubygem-did_you_mean",
    "ea-ruby27-rubygem-io-console",
    "ea-ruby27-rubygem-json",
    "ea-ruby27-rubygem-openssl",
    "ea-ruby27-rubygem-passenger",
    "ea-ruby27-rubygem-psych",
    "ea-ruby27-rubygem-rack",
    "ea-ruby27-rubygem-rdoc",
    "ea-ruby27-rubygems",
    "ea-ruby27-runtime"
  ],
  "tags": [],
  "name": "Brixly v1",
  "desc": ""
}
